<?xml version="1.0" encoding="UTF-8"?>
<CustomTab xmlns="http://soap.sforce.com/2006/04/metadata">
    <description>Created by Lightning App Builder</description>
    <flexiPage>Top_Accounts_and_Opportunities</flexiPage>
    <label>Top Accounts and Opportunities</label>
    <mobileReady>true</mobileReady>
    <motif>Custom91: Shield</motif>
</CustomTab>
